<svg xmlns="http://www.w3.org/2000/svg" width="8" height="1.125" viewBox="0 0 8 1.125">
  <path id="Path" d="M7.625,1.125A.376.376,0,0,0,8,.75V.375A.376.376,0,0,0,7.625,0H.375A.376.376,0,0,0,0,.375V.75a.376.376,0,0,0,.375.375Z" fill="#fff"/>
</svg>
